id;state;delivery_time
1;COMPLETED;2020-04-23T03:13:09
2;CANCELLED;2020-04-23T05:21:32
3;PENDING;2020-04-23T09:17:08
4;COMPLETED;2020-04-22T18:57:49
5;CANCELLED;2020-04-22T13:55:50
6;PENDING;2020-04-22T15:18:06
7;COMPLETED;2020-04-22T13:28:11
8;PENDING;2020-04-23T06:59:11
9;COMPLETED;2020-04-23T02:11:22
10;PENDING;2020-04-23T06:53:58
